<?xml version="1.0" encoding="UTF-8" standalone="no"?>
<svg
   xmlns:osb="http://www.openswatchbook.org/uri/2009/osb"
   xmlns:dc="http://purl.org/dc/elements/1.1/"
   xmlns:cc="http://creativecommons.org/ns#"
   xmlns:rdf="http://www.w3.org/1999/02/22-rdf-syntax-ns#"
   xmlns:svg="http://www.w3.org/2000/svg"
   xmlns="http://www.w3.org/2000/svg"
   xmlns:sodipodi="http://sodipodi.sourceforge.net/DTD/sodipodi-0.dtd"
   xmlns:inkscape="http://www.inkscape.org/namespaces/inkscape"
   viewBox="0 0 22 22"
   id="svg2"
   version="1.1"
   inkscape:version="0.91 r13725"
   sodipodi:docname="layer-function-dielectric.svg"
   enable-background="new">
  <metadata
     id="metadata10">
    <rdf:RDF>
      <cc:Work
         rdf:about="">
        <dc:format>image/svg+xml</dc:format>
        <dc:type
           rdf:resource="http://purl.org/dc/dcmitype/StillImage" />
        <dc:title></dc:title>
      </cc:Work>
    </rdf:RDF>
  </metadata>
  <sodipodi:namedview
     pagecolor="#ffffff"
     bordercolor="#666666"
     borderopacity="1"
     objecttolerance="10"
     gridtolerance="10"
     guidetolerance="10"
     inkscape:pageopacity="0"
     inkscape:pageshadow="2"
     inkscape:window-width="1920"
     inkscape:window-height="1018"
     id="namedview8"
     showgrid="false"
     inkscape:zoom="21.454545"
     inkscape:cx="-0.87584115"
     inkscape:cy="8.936728"
     inkscape:window-x="-8"
     inkscape:window-y="-8"
     inkscape:window-maximized="1"
     inkscape:current-layer="layer2" />
  <defs
     id="defs3051">
    <linearGradient
       id="linearGradient5716"
       osb:paint="solid">
      <stop
         style="stop-color:#4d4d4d;stop-opacity:1;"
         offset="0"
         id="stop5718" />
    </linearGradient>
    <style
       type="text/css"
       id="current-color-scheme">
      .ColorScheme-Text {
        color:#4d4d4d;
      }
      </style>
    <filter
       inkscape:collect="always"
       style="color-interpolation-filters:sRGB"
       id="filter5906">
      <feBlend
         inkscape:collect="always"
         mode="screen"
         in2="BackgroundImage"
         id="feBlend5908" />
    </filter>
    <filter
       inkscape:collect="always"
       style="color-interpolation-filters:sRGB"
       id="filter5906-2">
      <feBlend
         inkscape:collect="always"
         mode="screen"
         in2="BackgroundImage"
         id="feBlend5908-4" />
    </filter>
    <filter
       inkscape:collect="always"
       style="color-interpolation-filters:sRGB"
       id="filter5906-2-0">
      <feBlend
         inkscape:collect="always"
         mode="screen"
         in2="BackgroundImage"
         id="feBlend5908-4-5" />
    </filter>
    <filter
       inkscape:collect="always"
       style="color-interpolation-filters:sRGB"
       id="filter5906-5">
      <feBlend
         inkscape:collect="always"
         mode="screen"
         in2="BackgroundImage"
         id="feBlend5908-6" />
    </filter>
    <filter
       inkscape:collect="always"
       style="color-interpolation-filters:sRGB"
       id="filter5906-3">
      <feBlend
         inkscape:collect="always"
         mode="screen"
         in2="BackgroundImage"
         id="feBlend5908-65" />
    </filter>
    <filter
       inkscape:collect="always"
       style="color-interpolation-filters:sRGB"
       id="filter5906-2-06">
      <feBlend
         inkscape:collect="always"
         mode="screen"
         in2="BackgroundImage"
         id="feBlend5908-4-9" />
    </filter>
  </defs>
  <g
     inkscape:groupmode="layer"
     id="layer2"
     inkscape:label="Layer 2"
     style="display:inline">
    <rect
       style="fill:#6d6d6d;fill-opacity:1;stroke:none;stroke-opacity:0.50196078"
       id="rect5959-57"
       width="0.60593224"
       height="2.4703391"
       x="2.3887706"
       y="7.1080499" />
    <rect
       style="fill:#6d6d6d;fill-opacity:1;stroke:none;stroke-opacity:0.50196078"
       id="rect5959-5-1"
       width="0.60593224"
       height="2.4703391"
       x="4.7625604"
       y="7.1313558" />
    <rect
       style="fill:#6d6d6d;fill-opacity:1;stroke:none;stroke-opacity:0.50196078"
       id="rect5959-2-7"
       width="0.60593224"
       height="2.4703391"
       x="11.883929"
       y="7.1313558" />
    <rect
       style="fill:#6d6d6d;fill-opacity:1;stroke:none;stroke-opacity:0.50196078"
       id="rect5959-3-5"
       width="0.60593224"
       height="2.4703391"
       x="9.5101385"
       y="7.1313558" />
    <rect
       style="fill:#6d6d6d;fill-opacity:1;stroke:none;stroke-opacity:0.50196078"
       id="rect5959-9-2"
       width="0.60593224"
       height="2.4703391"
       x="7.1363492"
       y="7.0847449" />
    <rect
       style="fill:#6d6d6d;fill-opacity:1;stroke:none;stroke-opacity:0.50196078"
       id="rect5959-6-7"
       width="0.60593224"
       height="2.4703391"
       x="14.257718"
       y="7.0847449" />
    <rect
       style="fill:#6d6d6d;fill-opacity:1;stroke:none;stroke-opacity:0.50196078"
       id="rect5959-28-4"
       width="0.60593224"
       height="2.4703391"
       x="16.631504"
       y="7.0847449" />
    <rect
       style="fill:#6d6d6d;fill-opacity:1;stroke:none;stroke-opacity:0.50196078"
       id="rect5959-38-5"
       width="0.60593224"
       height="2.4703391"
       x="19.005295"
       y="7.1313558" />
    <rect
       style="fill:#6d6d6d;fill-opacity:1;stroke:none;stroke-opacity:0.50196078"
       id="rect5959-50"
       width="0.60593224"
       height="2.4703391"
       x="2.3887708"
       y="11.722457" />
    <rect
       style="fill:#6d6d6d;fill-opacity:1;stroke:none;stroke-opacity:0.50196078"
       id="rect5959-5-2"
       width="0.60593224"
       height="2.4703391"
       x="4.7625594"
       y="11.745763" />
    <rect
       style="fill:#6d6d6d;fill-opacity:1;stroke:none;stroke-opacity:0.50196078"
       id="rect5959-2-0"
       width="0.60593224"
       height="2.4703391"
       x="11.883928"
       y="11.745763" />
    <rect
       style="fill:#6d6d6d;fill-opacity:1;stroke:none;stroke-opacity:0.50196078"
       id="rect5959-3-3"
       width="0.60593224"
       height="2.4703391"
       x="9.5101385"
       y="11.745763" />
    <rect
       style="fill:#6d6d6d;fill-opacity:1;stroke:none;stroke-opacity:0.50196078"
       id="rect5959-9-5"
       width="0.60593224"
       height="2.4703391"
       x="7.1363497"
       y="11.699152" />
    <rect
       style="fill:#6d6d6d;fill-opacity:1;stroke:none;stroke-opacity:0.50196078"
       id="rect5959-6-1"
       width="0.60593224"
       height="2.4703391"
       x="14.257717"
       y="11.699152" />
    <rect
       style="fill:#6d6d6d;fill-opacity:1;stroke:none;stroke-opacity:0.50196078"
       id="rect5959-28-2"
       width="0.60593224"
       height="2.4703391"
       x="16.631506"
       y="11.699152" />
    <rect
       style="fill:#6d6d6d;fill-opacity:1;stroke:none;stroke-opacity:0.50196078"
       id="rect5959-38-9"
       width="0.60593224"
       height="2.4703391"
       x="19.005297"
       y="11.745763" />
    <rect
       style="display:inline;fill:#4d4d4d;fill-opacity:1;stroke:none;stroke-width:0;stroke-linecap:round;stroke-linejoin:round;stroke-miterlimit:4;stroke-dasharray:none;stroke-opacity:1;filter:url(#filter5906-5)"
       id="rect3248-5-4"
       width="20.135597"
       height="0.32627708"
       x="0.93220115"
       y="13.377116" />
    <rect
       style="display:inline;fill:#4d4d4d;fill-opacity:1;stroke:none;stroke-width:0;stroke-linecap:round;stroke-linejoin:round;stroke-miterlimit:4;stroke-dasharray:none;stroke-opacity:1;filter:url(#filter5906-2-0)"
       id="rect3248-5-0-0"
       width="20.135597"
       height="0.32627708"
       x="0.93220115"
       y="12.35169" />
    <rect
       style="fill:#4d4d4d;fill-opacity:1;stroke:none;stroke-width:0;stroke-linecap:round;stroke-linejoin:round;stroke-miterlimit:4;stroke-dasharray:none;stroke-opacity:1;filter:url(#filter5906)"
       id="rect3248-5"
       width="20.135597"
       height="0.32627708"
       x="0.93220091"
       y="11.069913" />
    <rect
       style="fill:#4d4d4d;fill-opacity:1;stroke:none;stroke-width:0;stroke-linecap:round;stroke-linejoin:round;stroke-miterlimit:4;stroke-dasharray:none;stroke-opacity:1;filter:url(#filter5906-2)"
       id="rect3248-5-0"
       width="20.135597"
       height="0.32627708"
       x="0.93220091"
       y="10.044487" />
    <rect
       style="fill:#4d4d4d;fill-opacity:1;stroke:none;stroke-width:0;stroke-linecap:round;stroke-linejoin:round;stroke-miterlimit:4;stroke-dasharray:none;stroke-opacity:1;filter:url(#filter5906-3)"
       id="rect3248-5-9"
       width="20.135597"
       height="0.32627708"
       x="0.88559079"
       y="8.9258461" />
    <rect
       style="fill:#4d4d4d;fill-opacity:1;stroke:none;stroke-width:0;stroke-linecap:round;stroke-linejoin:round;stroke-miterlimit:4;stroke-dasharray:none;stroke-opacity:1;filter:url(#filter5906-2-06)"
       id="rect3248-5-0-5"
       width="20.135597"
       height="0.32627708"
       x="0.88559079"
       y="7.9004197" />
  </g>
  <g
     inkscape:groupmode="layer"
     id="layer1"
     inkscape:label="Layer 1"
     style="">
    <rect
       style="fill:#6d6d6d;fill-opacity:1;stroke:none;stroke-opacity:0.50196078"
       id="rect5959"
       width="0.60593224"
       height="2.4703391"
       x="2.3887706"
       y="9.4152536" />
    <rect
       style="fill:#6d6d6d;fill-opacity:1;stroke:none;stroke-opacity:0.50196078"
       id="rect5959-5"
       width="0.60593224"
       height="2.4703391"
       x="4.7625594"
       y="9.4385595" />
    <rect
       style="fill:#6d6d6d;fill-opacity:1;stroke:none;stroke-opacity:0.50196078"
       id="rect5959-2"
       width="0.60593224"
       height="2.4703391"
       x="11.883928"
       y="9.4385595" />
    <rect
       style="fill:#6d6d6d;fill-opacity:1;stroke:none;stroke-opacity:0.50196078"
       id="rect5959-3"
       width="0.60593224"
       height="2.4703391"
       x="9.5101385"
       y="9.4385595" />
    <rect
       style="fill:#6d6d6d;fill-opacity:1;stroke:none;stroke-opacity:0.50196078"
       id="rect5959-9"
       width="0.60593224"
       height="2.4703391"
       x="7.1363492"
       y="9.3919487" />
    <rect
       style="fill:#6d6d6d;fill-opacity:1;stroke:none;stroke-opacity:0.50196078"
       id="rect5959-6"
       width="0.60593224"
       height="2.4703391"
       x="14.257717"
       y="9.3919487" />
    <rect
       style="fill:#6d6d6d;fill-opacity:1;stroke:none;stroke-opacity:0.50196078"
       id="rect5959-28"
       width="0.60593224"
       height="2.4703391"
       x="16.631504"
       y="9.3919487" />
    <rect
       style="fill:#6d6d6d;fill-opacity:1;stroke:none;stroke-opacity:0.50196078"
       id="rect5959-38"
       width="0.60593224"
       height="2.4703391"
       x="19.005297"
       y="9.4385595" />
  </g>
</svg>
