<?xml version="1.0" encoding="UTF-8" standalone="no"?>
<!-- Created with Inkscape (http://www.inkscape.org/) -->

<svg
   xmlns:osb="http://www.openswatchbook.org/uri/2009/osb"
   xmlns:dc="http://purl.org/dc/elements/1.1/"
   xmlns:cc="http://creativecommons.org/ns#"
   xmlns:rdf="http://www.w3.org/1999/02/22-rdf-syntax-ns#"
   xmlns:svg="http://www.w3.org/2000/svg"
   xmlns="http://www.w3.org/2000/svg"
   xmlns:xlink="http://www.w3.org/1999/xlink"
   xmlns:sodipodi="http://sodipodi.sourceforge.net/DTD/sodipodi-0.dtd"
   xmlns:inkscape="http://www.inkscape.org/namespaces/inkscape"
   height="48"
   width="48"
   id="svg3213"
   version="1.1"
   inkscape:version="0.92.0 unknown"
   viewBox="0 0 48 48"
   sodipodi:docname="arrangement-triangle.svg">
  <defs
     id="defs3219">
    <linearGradient
       id="linearGradient9418"
       osb:paint="solid">
      <stop
         style="stop-color:#000000;stop-opacity:1;"
         offset="0"
         id="stop9416" />
    </linearGradient>
    <linearGradient
       id="linearGradient5214"
       osb:paint="solid">
      <stop
         style="stop-color:#ff0000;stop-opacity:1;"
         offset="0"
         id="stop5212" />
    </linearGradient>
    <linearGradient
       id="linearGradient5206"
       osb:paint="solid">
      <stop
         style="stop-color:#000000;stop-opacity:1;"
         offset="0"
         id="stop5204" />
    </linearGradient>
    <linearGradient
       id="linearGradient4580"
       osb:paint="solid">
      <stop
         style="stop-color:#000000;stop-opacity:1;"
         offset="0"
         id="stop4578" />
    </linearGradient>
    <inkscape:path-effect
       effect="bspline"
       id="path-effect4540"
       is_visible="true"
       weight="33.333333"
       steps="2"
       helper_size="0"
       apply_no_weight="true"
       apply_with_weight="true"
       only_selected="false" />
    <inkscape:path-effect
       effect="bspline"
       id="path-effect4536"
       is_visible="true"
       weight="33.333333"
       steps="2"
       helper_size="0"
       apply_no_weight="true"
       apply_with_weight="true"
       only_selected="false" />
    <inkscape:path-effect
       effect="bspline"
       id="path-effect4528"
       is_visible="true"
       weight="33.333333"
       steps="2"
       helper_size="0"
       apply_no_weight="true"
       apply_with_weight="true"
       only_selected="false" />
    <inkscape:path-effect
       effect="bspline"
       id="path-effect4524"
       is_visible="true"
       weight="33.333333"
       steps="2"
       helper_size="0"
       apply_no_weight="true"
       apply_with_weight="true"
       only_selected="false" />
    <inkscape:path-effect
       effect="bspline"
       id="path-effect4520"
       is_visible="true"
       weight="33.333333"
       steps="2"
       helper_size="0"
       apply_no_weight="true"
       apply_with_weight="true"
       only_selected="false" />
    <inkscape:path-effect
       effect="bspline"
       id="path-effect4516"
       is_visible="true"
       weight="33.333333"
       steps="2"
       helper_size="0"
       apply_no_weight="true"
       apply_with_weight="true"
       only_selected="false" />
    <inkscape:path-effect
       effect="bspline"
       id="path-effect4512"
       is_visible="true"
       weight="33.333333"
       steps="2"
       helper_size="0"
       apply_no_weight="true"
       apply_with_weight="true"
       only_selected="false" />
    <inkscape:path-effect
       effect="bspline"
       id="path-effect4508"
       is_visible="true"
       weight="33.333333"
       steps="2"
       helper_size="0"
       apply_no_weight="true"
       apply_with_weight="true"
       only_selected="false" />
    <linearGradient
       id="linearGradient4521"
       osb:paint="solid">
      <stop
         style="stop-color:#000000;stop-opacity:1;"
         offset="0"
         id="stop4519" />
    </linearGradient>
    <inkscape:path-effect
       effect="bspline"
       id="path-effect4505"
       is_visible="true"
       weight="33.333333"
       steps="2"
       helper_size="0"
       apply_no_weight="true"
       apply_with_weight="true"
       only_selected="false" />
    <inkscape:path-effect
       effect="bspline"
       id="path-effect4501"
       is_visible="true"
       weight="33.333333"
       steps="2"
       helper_size="0"
       apply_no_weight="true"
       apply_with_weight="true"
       only_selected="false" />
    <inkscape:path-effect
       effect="bspline"
       id="path-effect4497"
       is_visible="true"
       weight="33.333333"
       steps="2"
       helper_size="0"
       apply_no_weight="true"
       apply_with_weight="true"
       only_selected="false" />
    <inkscape:path-effect
       effect="bspline"
       id="path-effect4493"
       is_visible="true"
       weight="33.333333"
       steps="2"
       helper_size="0"
       apply_no_weight="true"
       apply_with_weight="true"
       only_selected="false" />
    <linearGradient
       inkscape:collect="always"
       xlink:href="#linearGradient5206"
       id="linearGradient5208"
       x1="5"
       y1="24"
       x2="43"
       y2="24"
       gradientUnits="userSpaceOnUse"
       gradientTransform="matrix(0.81818182,0,0,1.2857144,4.3636364,-6.8571441)" />
    <linearGradient
       inkscape:collect="always"
       xlink:href="#linearGradient5214"
       id="linearGradient5216"
       x1="4"
       y1="7"
       x2="10"
       y2="7"
       gradientUnits="userSpaceOnUse"
       gradientTransform="matrix(1.6666667,0,0,4.6666667,44.333333,12.333332)" />
    <linearGradient
       inkscape:collect="always"
       xlink:href="#linearGradient5214"
       id="linearGradient5216-5-20-6"
       x1="4"
       y1="7"
       x2="10"
       y2="7"
       gradientUnits="userSpaceOnUse"
       gradientTransform="translate(17,6)" />
    <linearGradient
       inkscape:collect="always"
       xlink:href="#linearGradient5214"
       id="linearGradient5793"
       gradientUnits="userSpaceOnUse"
       gradientTransform="matrix(0.5,0,0,1.1666666,19.999996,-2.6666666)"
       x1="4"
       y1="7"
       x2="10"
       y2="7" />
    <linearGradient
       inkscape:collect="always"
       xlink:href="#linearGradient5214"
       id="linearGradient5216-5-20-6-1"
       x1="4"
       y1="7"
       x2="10"
       y2="7"
       gradientUnits="userSpaceOnUse"
       gradientTransform="matrix(1.25,0,0,1.1666666,13.99999,0.333333)" />
    <linearGradient
       inkscape:collect="always"
       xlink:href="#linearGradient5206"
       id="linearGradient5208-4"
       x1="5"
       y1="24"
       x2="43"
       y2="24"
       gradientUnits="userSpaceOnUse"
       gradientTransform="matrix(0.8181818,0,0,0.64285717,4.3636366,8.5714281)" />
    <linearGradient
       inkscape:collect="always"
       xlink:href="#linearGradient5214"
       id="linearGradient5507-2"
       gradientUnits="userSpaceOnUse"
       gradientTransform="matrix(0.5,0,0,1.1666666,31.999996,31.333333)"
       x1="4"
       y1="7"
       x2="10"
       y2="7" />
    <linearGradient
       inkscape:collect="always"
       xlink:href="#linearGradient5214"
       id="linearGradient5216-5-20-6-1-9"
       x1="4"
       y1="7"
       x2="10"
       y2="7"
       gradientUnits="userSpaceOnUse"
       gradientTransform="matrix(0.5,0,0,1.1666666,7.999996,31.333333)" />
    <linearGradient
       inkscape:collect="always"
       xlink:href="#linearGradient5214"
       id="linearGradient9422"
       x1="18"
       y1="39.5"
       x2="22"
       y2="39.5"
       gradientUnits="userSpaceOnUse"
       gradientTransform="matrix(0.75,0,0,0.85714286,9.0999912,5.6428646)" />
  </defs>
  <sodipodi:namedview
     pagecolor="#ffffff"
     bordercolor="#666666"
     borderopacity="1"
     objecttolerance="50"
     gridtolerance="10000"
     guidetolerance="10000"
     inkscape:pageopacity="0"
     inkscape:pageshadow="2"
     inkscape:window-width="1920"
     inkscape:window-height="1015"
     id="namedview3217"
     showgrid="true"
     inkscape:zoom="16"
     inkscape:cx="18.827962"
     inkscape:cy="25.473171"
     inkscape:window-x="0"
     inkscape:window-y="0"
     inkscape:window-maximized="1"
     inkscape:current-layer="layer1"
     showguides="true"
     inkscape:snap-tangential="true"
     inkscape:snap-perpendicular="true"
     inkscape:guide-bbox="true"
     inkscape:snap-to-guides="false"
     inkscape:snap-page="false"
     inkscape:snap-object-midpoints="false"
     inkscape:snap-nodes="true"
     inkscape:snap-grids="true">
    <inkscape:grid
       type="xygrid"
       id="grid3269"
       empspacing="5"
       dotted="false"
       originx="24"
       originy="24" />
    <sodipodi:guide
       position="0,24"
       orientation="0,1"
       inkscape:locked="false"
       id="guide4507"
       inkscape:label=""
       inkscape:color="rgb(0,0,0)" />
    <sodipodi:guide
       position="24,44"
       orientation="1,0"
       inkscape:locked="false"
       id="guide4509"
       inkscape:label=""
       inkscape:color="rgb(0,0,0)" />
    <sodipodi:guide
       position="48,0"
       orientation="-0.70710678,-0.70710678"
       inkscape:locked="false"
       id="guide4511"
       inkscape:label=""
       inkscape:color="rgb(0,0,0)" />
    <sodipodi:guide
       position="0,0"
       orientation="-0.70710678,0.70710678"
       inkscape:locked="false"
       id="guide4513"
       inkscape:label=""
       inkscape:color="rgb(0,0,0)" />
    <sodipodi:guide
       position="10,46"
       orientation="0,1"
       inkscape:locked="false"
       id="guide4535"
       inkscape:label="Vertical"
       inkscape:color="rgb(255,0,0)" />
    <sodipodi:guide
       position="46,38"
       orientation="1,0"
       inkscape:locked="false"
       id="guide4537"
       inkscape:label="Horizontal"
       inkscape:color="rgb(0,255,0)" />
    <sodipodi:guide
       position="38,2"
       orientation="0,1"
       inkscape:locked="false"
       id="guide4539"
       inkscape:label="Vertical"
       inkscape:color="rgb(255,0,0)" />
    <sodipodi:guide
       position="46,10"
       orientation="0,1"
       id="guide4530"
       inkscape:locked="false"
       inkscape:label="Horizontal"
       inkscape:color="rgb(0,255,0)" />
    <sodipodi:guide
       position="2,38"
       orientation="0,1"
       id="guide4532"
       inkscape:locked="false"
       inkscape:label="Horizontal"
       inkscape:color="rgb(0,255,0)" />
    <sodipodi:guide
       position="2,10"
       orientation="1,0"
       id="guide4544"
       inkscape:locked="false"
       inkscape:label="Horizontal"
       inkscape:color="rgb(0,255,0)" />
    <sodipodi:guide
       position="38,46"
       orientation="1,0"
       id="guide4546"
       inkscape:locked="false"
       inkscape:label="Vertical"
       inkscape:color="rgb(255,0,0)" />
    <sodipodi:guide
       position="10,2"
       orientation="1,0"
       id="guide4548"
       inkscape:locked="false"
       inkscape:label="Vertical"
       inkscape:color="rgb(255,0,0)" />
    <sodipodi:guide
       position="14,34"
       orientation="0,1"
       id="guide4556"
       inkscape:locked="false"
       inkscape:label=""
       inkscape:color="rgb(0,0,0)" />
    <sodipodi:guide
       position="34,14"
       orientation="0,1"
       id="guide4558"
       inkscape:locked="false"
       inkscape:label=""
       inkscape:color="rgb(0,0,0)" />
    <sodipodi:guide
       position="34,34"
       orientation="1,0"
       id="guide4564"
       inkscape:locked="false"
       inkscape:label=""
       inkscape:color="rgb(0,0,0)" />
    <sodipodi:guide
       position="14,34"
       orientation="1,0"
       id="guide4566"
       inkscape:locked="false"
       inkscape:label=""
       inkscape:color="rgb(0,0,0)" />
    <sodipodi:guide
       position="5,43"
       orientation="1,0"
       id="guide4568"
       inkscape:locked="false"
       inkscape:label="Square"
       inkscape:color="rgb(0,0,255)" />
    <sodipodi:guide
       position="5,5"
       orientation="0,1"
       id="guide4570"
       inkscape:locked="false"
       inkscape:label="Square"
       inkscape:color="rgb(0,0,255)" />
    <sodipodi:guide
       position="43,5"
       orientation="1,0"
       id="guide4572"
       inkscape:locked="false"
       inkscape:label="Square"
       inkscape:color="rgb(0,0,255)" />
    <sodipodi:guide
       position="43,43"
       orientation="0,1"
       id="guide4574"
       inkscape:locked="false"
       inkscape:label="Square"
       inkscape:color="rgb(0,0,255)" />
  </sodipodi:namedview>
  <metadata
     id="metadata3215">
    <rdf:RDF>
      <cc:Work
         rdf:about="">
        <dc:format>image/svg+xml</dc:format>
        <dc:type
           rdf:resource="http://purl.org/dc/dcmitype/StillImage" />
        <dc:title></dc:title>
      </cc:Work>
    </rdf:RDF>
  </metadata>
  <g
     inkscape:groupmode="layer"
     id="layer1"
     inkscape:label="Layer 1">
    <rect
       style="opacity:0.86000001;fill:none;fill-opacity:1;stroke:none;stroke-width:0.37795276;stroke-linecap:square;stroke-linejoin:miter;stroke-miterlimit:4;stroke-dasharray:none;stroke-opacity:1"
       id="rect4541"
       width="32"
       height="44"
       x="-10"
       y="-2"
       rx="2"
       ry="2" />
    <rect
       style="opacity:0.86000001;fill:none;fill-opacity:1;stroke:none;stroke-width:0.37795275;stroke-linecap:square;stroke-linejoin:miter;stroke-miterlimit:4;stroke-dasharray:none;stroke-opacity:1"
       id="rect4541-2"
       width="32"
       height="44"
       x="45"
       y="38"
       rx="2"
       ry="2" />
    <rect
       style="opacity:0.86000001;fill:none;fill-opacity:1;stroke:url(#linearGradient5208-4);stroke-width:1.99999952;stroke-linecap:square;stroke-linejoin:miter;stroke-miterlimit:4;stroke-dasharray:none;stroke-opacity:1"
       id="rect5202"
       width="36"
       height="18"
       x="6"
       y="15"
       rx="2"
       ry="2" />
    <rect
       style="opacity:0.86000001;fill:url(#linearGradient5216-5-20-6-1);fill-opacity:1;stroke:none;stroke-width:3.33333278;stroke-linecap:square;stroke-linejoin:miter;stroke-miterlimit:4;stroke-dasharray:none;stroke-opacity:1"
       id="rect5210-5-3-2"
       width="10"
       height="7"
       x="19"
       y="5"
       rx="0.99999994"
       ry="1" />
    <rect
       style="opacity:0.86000001;fill:url(#linearGradient5216-5-20-6-1-9);fill-opacity:1;stroke:none;stroke-width:3.33333278;stroke-linecap:square;stroke-linejoin:miter;stroke-miterlimit:4;stroke-dasharray:none;stroke-opacity:1"
       id="rect5210-5-3-2-5"
       width="4"
       height="7"
       x="10"
       y="36"
       rx="1"
       ry="1" />
    <rect
       style="opacity:0.86000001;fill:none;fill-opacity:0.02238805;stroke:url(#linearGradient9422);stroke-width:1;stroke-linecap:square;stroke-linejoin:miter;stroke-miterlimit:4;stroke-dasharray:none;stroke-opacity:1"
       id="rect5501-4"
       width="3"
       height="6"
       x="22.599998"
       y="36.500008"
       rx="1"
       ry="0.99999994" />
    <rect
       ry="1"
       rx="1"
       y="36"
       x="34"
       height="7"
       width="4"
       id="rect5505-8"
       style="opacity:0.86000001;fill:url(#linearGradient5507-2);fill-opacity:1;stroke:none;stroke-width:3.33333278;stroke-linecap:square;stroke-linejoin:miter;stroke-miterlimit:4;stroke-dasharray:none;stroke-opacity:1" />
  </g>
</svg>
